%YAML 1.1
%TAG !u! tag:unity3d.com,2011:
--- !u!1001 &100100000
Prefab:
  m_ObjectHideFlags: 1
  serializedVersion: 2
  m_Modification:
    m_TransformParent: {fileID: 0}
    m_Modifications: []
    m_RemovedComponents: []
  m_ParentPrefab: {fileID: 0}
  m_RootGameObject: {fileID: 1505421530090282}
  m_IsPrefabParent: 1
--- !u!1 &1505421530090282
GameObject:
  m_ObjectHideFlags: 0
  m_PrefabParentObject: {fileID: 0}
  m_PrefabInternal: {fileID: 100100000}
  serializedVersion: 5
  m_Component:
  - component: {fileID: 4378388903256416}
  - component: {fileID: 114528535001379340}
  - component: {fileID: 114506520912645770}
  - component: {fileID: 114365829911429984}
  - component: {fileID: 114556567844250120}
  m_Layer: 0
  m_Name: _VehicleManager
  m_TagString: Untagged
  m_Icon: {fileID: 0}
  m_NavMeshLayer: 0
  m_StaticEditorFlags: 0
  m_IsActive: 1
--- !u!4 &4378388903256416
Transform:
  m_ObjectHideFlags: 1
  m_PrefabParentObject: {fileID: 0}
  m_PrefabInternal: {fileID: 100100000}
  m_GameObject: {fileID: 1505421530090282}
  m_LocalRotation: {x: -0, y: -0.7071068, z: -0, w: 0.7071068}
  m_LocalPosition: {x: 227.48672, y: -3.2217298, z: -56.06308}
  m_LocalScale: {x: 1, y: 1, z: 1}
  m_Children: []
  m_Father: {fileID: 0}
  m_RootOrder: 0
  m_LocalEulerAnglesHint: {x: 0, y: 0, z: 0}
--- !u!114 &114365829911429984
MonoBehaviour:
  m_ObjectHideFlags: 1
  m_PrefabParentObject: {fileID: 0}
  m_PrefabInternal: {fileID: 100100000}
  m_GameObject: {fileID: 1505421530090282}
  m_Enabled: 1
  m_EditorHideFlags: 0
  m_Script: {fileID: 11500000, guid: 5cf76f9cebc6bd4498337e7173ebc5a0, type: 3}
  m_Name: 
  m_EditorClassIdentifier: 
  smokePrefab: {fileID: 1480057683043524, guid: 03ced171a102df348ad466c25afb025e,
    type: 2}
  dustPrefab: {fileID: 1980262531956446, guid: d43fdf76272def940b878508ff66406c, type: 2}
  groundEntities:
  - name: Asphalt
    terrainTextureIndices: 06000000
    tags:
    - Road
    frictionPresetEnum: 0
    skidmarkMaterial: {fileID: 2100000, guid: ca984932f6957a744bdc716a2ac03220, type: 2}
    slipBasedSkidIntensity: 1
    smokeIntensity: 23.3
    dustIntensity: 0
    dustColor: {r: 1, g: 0.92156863, b: 0.015686275, a: 1}
    slipSensitiveSurfaceSound: 1
    surfaceSoundComponent:
      volume: 0.32
      pitch: 1
      clip: {fileID: 8300000, guid: 77d6eaeb41d727a4681a2cc8654c60b2, type: 3}
      source: {fileID: 0}
    skidSoundComponent:
      volume: 0.33
      pitch: 1.25
      clip: {fileID: 8300000, guid: 54bbc60051d16904d9fa34c6fff4b874, type: 3}
      source: {fileID: 0}
  - name: Gravel
    terrainTextureIndices: 0500000007000000
    tags: []
    frictionPresetEnum: 2
    skidmarkMaterial: {fileID: 2100000, guid: 366e7eca079c5fd4e93abdc182e78c74, type: 2}
    slipBasedSkidIntensity: 0
    smokeIntensity: 0
    dustIntensity: 7.7
    dustColor: {r: 0.6102941, g: 0.58083165, b: 0.4846453, a: 1}
    slipSensitiveSurfaceSound: 0
    surfaceSoundComponent:
      volume: 0.39
      pitch: 0.95
      clip: {fileID: 8300000, guid: f21e5fe2f8b9f9c41a606d4129223466, type: 3}
      source: {fileID: 0}
    skidSoundComponent:
      volume: 0.56
      pitch: 1
      clip: {fileID: 8300000, guid: c69868bf7aebc1f4980e076264a14be5, type: 3}
      source: {fileID: 0}
  - name: Sand
    terrainTextureIndices: 0100000002000000
    tags: []
    frictionPresetEnum: 2
    skidmarkMaterial: {fileID: 2100000, guid: 449bf69ad657ea4429f852bc77906eee, type: 2}
    slipBasedSkidIntensity: 0
    smokeIntensity: 0
    dustIntensity: 25.4
    dustColor: {r: 0.91764706, g: 0.8156863, b: 0.6, a: 1}
    slipSensitiveSurfaceSound: 0
    surfaceSoundComponent:
      volume: 0.136
      pitch: 1
      clip: {fileID: 8300000, guid: a2a31d70250395f42ae658a9f1a2a453, type: 3}
      source: {fileID: 0}
    skidSoundComponent:
      volume: 0.215
      pitch: 1
      clip: {fileID: 8300000, guid: a2a31d70250395f42ae658a9f1a2a453, type: 3}
      source: {fileID: 0}
  - name: Grass
    terrainTextureIndices: 0300000004000000
    tags: []
    frictionPresetEnum: 2
    skidmarkMaterial: {fileID: 2100000, guid: 7060dd8d1f6d6264e942d722c5352c2f, type: 2}
    slipBasedSkidIntensity: 0
    smokeIntensity: 0
    dustIntensity: 0
    dustColor: {r: 1, g: 0.92156863, b: 0.015686275, a: 1}
    slipSensitiveSurfaceSound: 0
    surfaceSoundComponent:
      volume: 0.6
      pitch: 1
      clip: {fileID: 0}
      source: {fileID: 0}
    skidSoundComponent:
      volume: 0.6
      pitch: 1
      clip: {fileID: 0}
      source: {fileID: 0}
  - name: Rock
    terrainTextureIndices: 00000000
    tags: []
    frictionPresetEnum: 1
    skidmarkMaterial: {fileID: 0}
    slipBasedSkidIntensity: 0
    smokeIntensity: 0
    dustIntensity: 0
    dustColor: {r: 1, g: 0.92156863, b: 0.015686275, a: 1}
    slipSensitiveSurfaceSound: 0
    surfaceSoundComponent:
      volume: 0.6
      pitch: 1
      clip: {fileID: 0}
      source: {fileID: 0}
    skidSoundComponent:
      volume: 0.6
      pitch: 1
      clip: {fileID: 0}
      source: {fileID: 0}
--- !u!114 &114506520912645770
MonoBehaviour:
  m_ObjectHideFlags: 1
  m_PrefabParentObject: {fileID: 0}
  m_PrefabInternal: {fileID: 100100000}
  m_GameObject: {fileID: 1505421530090282}
  m_Enabled: 1
  m_EditorHideFlags: 0
  m_Script: {fileID: 11500000, guid: 7b5aa35d4b2056e4084d626afa3c9f38, type: 3}
  m_Name: 
  m_EditorClassIdentifier: 
  enterDistance: 2
  maxEnterExitVehicleSpeed: 1
  enterExitTag: EnterExitPoint
  characterControllerObject: {fileID: 0}
  nearVehicle: 0
--- !u!114 &114528535001379340
MonoBehaviour:
  m_ObjectHideFlags: 1
  m_PrefabParentObject: {fileID: 0}
  m_PrefabInternal: {fileID: 100100000}
  m_GameObject: {fileID: 1505421530090282}
  m_Enabled: 1
  m_EditorHideFlags: 0
  m_Script: {fileID: 11500000, guid: d080eb0842fd9c140af5173bd8b4d6b8, type: 3}
  m_Name: 
  m_EditorClassIdentifier: 
  vehicles:
  - {fileID: 0}
  - {fileID: 0}
  - {fileID: 0}
  - {fileID: 0}
  - {fileID: 0}
  - {fileID: 0}
  - {fileID: 0}
  vehicleTag: Vehicle
--- !u!114 &114556567844250120
MonoBehaviour:
  m_ObjectHideFlags: 1
  m_PrefabParentObject: {fileID: 0}
  m_PrefabInternal: {fileID: 100100000}
  m_GameObject: {fileID: 1505421530090282}
  m_Enabled: 1
  m_EditorHideFlags: 0
  m_Script: {fileID: 11500000, guid: 0e6bf8638cc34cd4890ee102c6727ea4, type: 3}
  m_Name: 
  m_EditorClassIdentifier: 
  inputType: 0
  vehicleChanger: {fileID: 114528535001379340}
  vehicleController: {fileID: 0}
  steerLinearity: 0.7
